.Xil/Vivado-11720-DESKTOP-T0O4NS9/hw_ila_data_1/zip_work/waveform.vcd
$date
        2022-Feb-21 05:31:09
$end
$version
        Vivado v2018.3 (64-bit)
$end
$timescale
        1ps
$end
$scope module dut $end
$var reg 1 " ad_otr_IBUF $end
$var reg 8 # ad_data_IBUF [7:0] $end
$var reg 1 + lcd_vs_OBUF $end
$var reg 1 , _TRIGGER $end
$var reg 1 - _WINDOW $end
$var reg 1 . _GAP $end
$upscope $end
$enddefinitions $end
#0
$dumpvars
0"
b11011100 #
1+
0,
1-
0.
$end
#1
b11011011 #
#2
b11011010 #
#4
b11011001 #
#7
b11010111 #
#10
b11010110 #
#11
b11010101 #
#13
b11010011 #
#14
b11010010 #
#16
b11010001 #
#17
b11010000 #
#19
b11001111 #
#22
b11001110 #
#23
b11001101 #
#25
b11001011 #
#26
b11001010 #
#28
b11001001 #
#29
b11001000 #
#30
b11001001 #
#31
b11000111 #
#32
b11000110 #
#34
b11000101 #
#36
b11000100 #
#37
b11000010 #
#40
b11000000 #
#41
b11111111 #
#43
b11111101 #
#44
b11111100 #
#46
b11111011 #
#47
b11111010 #
#49
b11111001 #
#50
b11111000 #
#52
b11110110 #
#53
b11110101 #
#55
b11110100 #
#56
b11110011 #
#58
b11110001 #
#59
b11110000 #
#61
b11101110 #
#64
b11101100 #
#65
b11101011 #
#67
b11101001 #
#68
b11101000 #
#70
b11100111 #
#71
b11100101 #
#72
b11100110 #
#73
b11100100 #
#74
b11100011 #
#76
b11100001 #
#77
b11100000 #
#79
b11011110 #
#80
b11011101 #
#81
b11011110 #
#82
b11011100 #
#83
b11011010 #
#84
b11011011 #
#85
b11011001 #
#86
b11011000 #
#88
b11010110 #
#89
b11010101 #
#91
b11010011 #
#92
b11010010 #
#94
b11010001 #
#95
b11010000 #
#97
b11001110 #
#98
b11001101 #
#100
b11001011 #
#101
b11001010 #
#103
b11001000 #
#104
b11000111 #
#105
b11001000 #
#106
b11000110 #
#107
b11000101 #
#109
b11000011 #
#110
b11000010 #
#112
b11000000 #
#113
b1111110 #
#115
b1111100 #
#117
b1111011 #
#118
b1111010 #
#119
b1111001 #
#121
b1110111 #
#122
b1110110 #
#124
b1110100 #
#125
b1110011 #
#127
b1110001 #
#130
b1101111 #
#131
b1101110 #
#133
b1101100 #
#134
b1101011 #
#136
b1101001 #
#137
b1101000 #
#139
b1100110 #
#142
b1100100 #
#143
b1100011 #
#145
b1100001 #
#146
b1100000 #
#148
b1011110 #
#149
b1011101 #
#151
b1011011 #
#152
b1011010 #
#153
b1011011 #
#154
b1011001 #
#155
b1011000 #
#157
b1010110 #
#158
b1010101 #
#160
b1010011 #
#161
b1010010 #
#162
b1010011 #
#163
b1010001 #
#164
b1001111 #
#165
b1010000 #
#166
b1001110 #
#167
b1001101 #
#169
b1001011 #
#170
b1001010 #
#172
b1001001 #
#173
b1001000 #
#175
b1000110 #
#178
b1000100 #
#179
b1000011 #
#181
b1000010 #
#182
b1000001 #
#184
b1111111 #
#185
b1111110 #
#187
b1111100 #
#188
b1111011 #
#190
b1111010 #
#193
b1111000 #
#194
b1110111 #
#196
b1110110 #
#197
b1110101 #
#199
b1110100 #
#200
b1110011 #
#202
b1110001 #
#203
b1110000 #
#205
b1101111 #
#206
b1101110 #
#207
b1101111 #
#208
b1101110 #
#209
b1101101 #
#211
b1101100 #
#212
b1101011 #
#214
b1101001 #
#216
b1101000 #
#217
b1100111 #
#218
b1100110 #
#219
b1100111 #
#220
b1100101 #
#222
b1100100 #
#223
b1100011 #
#226
b1100001 #
#229
b1100000 #
#232
b1011111 #
#233
b1011110 #
#235
b1011101 #
#236
b1011100 #
#240
b1011011 #
#241
b1011010 #
#242
b1011001 #
#243
b1011010 #
#244
b1011000 #
#247
b1010111 #
#250
b1010110 #
#253
b1010101 #
#254
b1010100 #
#256
b1010011 #
#260
b1010010 #
#263
b1010001 #
#266
b1010000 #
#267
b1010001 #
#268
b1010000 #
#269
b1001111 #
#272
b1001110 #
#273
b1001111 #
#274
b1001110 #
#280
b1001101 #
#281
b1001100 #
#282
b1001101 #
#283
b1001100 #
#289
b1001011 #
#304
b1001010 #
#308
b1001011 #
#322
b1001100 #
#329
b1001101 #
#337
b1001110 #
#340
b1001111 #
#343
b1010000 #
#346
b1010001 #
#349
b1010010 #
#352
b1010011 #
#356
b1010100 #
#358
b1010101 #
#359
b1010110 #
#362
b1010111 #
#367
b1011001 #
#369
b1011000 #
#370
b1011010 #
#371
b1011011 #
#373
b1011100 #
#376
b1011101 #
#377
b1011110 #
#379
b1011111 #
#380
b1100000 #
#383
b1100001 #
#385
b1100010 #
#386
b1100011 #
#388
b1100100 #
#391
b1100110 #
#394
b1101000 #
#397
b1101010 #
#398
b1101011 #
#400
b1101100 #
#401
b1101101 #
#403
b1101110 #
#406
b1110000 #
#409
b1110010 #
#410
b1110011 #
#412
b1110100 #
#413
b1110101 #
#415
b1110110 #
#416
b1110111 #
#418
b1111000 #
#419
b1111001 #
#421
b1111011 #
#424
b1111101 #
#425
b1111110 #
#427
b1000000 #
#428
b1000001 #
#430
b1000010 #
#432
b1000011 #
#433
b1000100 #
#434
b1000101 #
#436
b1000111 #
#437
b1001000 #
#439
b1001001 #
#440
b1001010 #
#442
b1001100 #
#443
b1001101 #
#445
b1001110 #
#446
b1001111 #
#448
b1010001 #
#449
b1010010 #
#451
b1010100 #
#452
b1010101 #
#454
b1010111 #
#456
b1011000 #
#457
b1011001 #
#458
b1011010 #
#460
b1011100 #
#461
b1011101 #
#463
b1011111 #
#464
b1100000 #
#466
b1100001 #
#467
b1100010 #
#468
b1100011 #
#469
b1100100 #
#470
b1100101 #
#472
b1100111 #
#473
b1101000 #
#475
b1101010 #
#476
b1101011 #
#478
b1101101 #
#479
b1101110 #
#481
b1101111 #
#482
b1110000 #
#484
b1110010 #
#485
b1110011 #
#487
b1110101 #
#488
b1110110 #
#490
b1110111 #
#491
b1111000 #
#492
b1111001 #
#493
b1111010 #
#494
b1111011 #
#496
b1111101 #
#497
b1111110 #
#499
b11000000 #
#500
b11000001 #
#501
b11000010 #
#502
b11000011 #
#503
b11000100 #
#505
b11000110 #
#506
b11000111 #
#508
b11001001 #
#509
b11001010 #
#511
b11001100 #
#512
b11001101 #
#514
b11001110 #
#515
b11001111 #
#517
b11010001 #
#518
b11010010 #
#520
b11010100 #
#521
b11010101 #
#523
b11010111 #
#526
b11011001 #
#527
b11011010 #
#529
b11011100 #
#530
b11011101 #
#532
b11011111 #
#533
b11100000 #
#535
b11100010 #
#536
b11100011 #
#538
b11100100 #
#539
b11100101 #
#541
b11100111 #
#542
b11101000 #
#544
b11101010 #
#545
b11101011 #
#547
b11101101 #
#550
b11101111 #
#551
b11110000 #
#553
b11110010 #
#554
b11110011 #
#556
b11110100 #
#557
b11110101 #
#559
b11110111 #
#560
b11111000 #
#562
b11111001 #
#563
b11111010 #
#565
b11111011 #
#566
b11111100 #
#568
b11111110 #
#569
b11111111 #
#571
b11000001 #
#572
b11000010 #
#574
b11000011 #
#577
b11000101 #
#578
b11000110 #
#580
b11000111 #
#581
b11001000 #
#583
b11001001 #
#584
b11001010 #
#586
b11001011 #
#587
b11001100 #
#588
b11001101 #
#589
b11001110 #
#591
b11001111 #
#592
b11010000 #
#595
b11010001 #
#596
b11010010 #
#598
b11010100 #
#599
b11010101 #
#601
b11010110 #
#602
b11010111 #
#604
b11011000 #
#606
b11011001 #
#607
b11011010 #
#610
b11011100 #
#613
b11011101 #
#616
b11011111 #
#619
b11100000 #
#620
b11100001 #
#623
b11100010 #
#625
b11100011 #
#626
b11100100 #
#628
b11100101 #
#629
b11100110 #
#632
b11100111 #
#636
b11101000 #
#637
b11101001 #
#640
b11101010 #
#643
b11101011 #
#646
b11101100 #
#650
b11101101 #
#653
b11101110 #
#656
b11101111 #
#659
b11110000 #
#666
b11110001 #
#673
b11110010 #
#707
b11110001 #
#713
b11110000 #
#716
b11101111 #
#717
b11110000 #
#721
b11101111 #
#724
b11101110 #
#725
b11101101 #
#726
b11101110 #
#727
b11101101 #
#730
b11101100 #
#733
b11101011 #
#736
b11101010 #
#739
b11101001 #
#742
b11101000 #
#743
b11100111 #
#746
b11100110 #
#749
b11100101 #
#750
b11100110 #
#751
b11100100 #
#754
b11100011 #
#755
b11100010 #
#757
b11100001 #
#760
b11100000 #
#761
b11011111 #
#763
b11011110 #
#764
b11011101 #
#767
b11011100 #
#769
b11011011 #
#770
b11011010 #
#771
b11011011 #
#772
b11011001 #
#775
b11010111 #
#778
b11010110 #
#779
b11010101 #
#781
b11010011 #
#782
b11010010 #
#784
b11010001 #
#785
b11010000 #
#787
b11001111 #
#790
b11001101 #
#793
b11001011 #
#794
b11001010 #
#796
b11001001 #
#797
b11001000 #
#799
b11000111 #
#801
b11000110 #
#802
b11000101 #
#803
b11000100 #
#805
b11000010 #
#808
b11000000 #
#809
b11111111 #
#811
b11111101 #
#812
b11111100 #
#814
b11111011 #
#815
b11111010 #
#816
b11111011 #
#817
b11111001 #
#818
b11111000 #
#820
b11110110 #
#821
b11110101 #
#823
b11110100 #
#824
b11110011 #
#826
b11110001 #
#829
b11101111 #
#830
b11101110 #
#832
b11101100 #
#833
b11101011 #
#835
b11101001 #
#836
b11101000 #
#838
b11100111 #
#839
b11100110 #
#841
b11100100 #
#842
b11100011 #
#844
b11100001 #
#845
b11100000 #
#847
b11011110 #
#848
b11011101 #
#849
b11011110 #
#850
b11011100 #
#851
b11011010 #
#852
b11011011 #
#853
b11011001 #
#854
b11011000 #
#856
b11010110 #
#857
b11010100 #
#858
b11010101 #
#859
b11010011 #
#860
b11010010 #
#861
b11010011 #
#862
b11010001 #
#863
b11010000 #
#865
b11001110 #
#866
b11001101 #
#868
b11001011 #
#869
b11001010 #
#871
b11001000 #
#872
b11000111 #
#873
b11001000 #
#874
b11000110 #
#875
b11000101 #
#877
b11000011 #
#878
b11000010 #
#880
b1111111 #
#881
b1111110 #
#882
b1111111 #
#883
b1111100 #
#884
b1111011 #
#886
b1111010 #
#887
b1111001 #
#889
b1110111 #
#890
b1110110 #
#892
b1110100 #
#893
b1110011 #
#895
b1110001 #
#896
b1110000 #
#897
b1110001 #
#898
b1101111 #
#899
b1101110 #
#901
b1101100 #
#902
b1101011 #
#904
b1101001 #
#905
b1101000 #
#907
b1100110 #
#909
b1100101 #
#910
b1100100 #
#911
b1100011 #
#913
b1100001 #
#914
b1100000 #
#916
b1011110 #
#917
b1011101 #
#919
b1011011 #
#920
b1011010 #
#921
b1011011 #
#922
b1011001 #
#923
b1011000 #
#925
b1010110 #
#926
b1010101 #
#928
b1010011 #
#929
b1010010 #
#931
b1010000 #
#934
b1001110 #
#935
b1001101 #
#937
b1001011 #
#938
b1001010 #
#940
b1001001 #
#941
b1001000 #
#943
b1000111 #
#944
b1000110 #
#946
b1000100 #
#947
b1000011 #
#949
b1000010 #
#950
b1000001 #
#952
b1111111 #
#953
b1111110 #
#955
b1111100 #
#956
b1111011 #
#957
b1111100 #
#958
b1111010 #
#960
b1111001 #
#961
b1111000 #
#962
b1110111 #
#964
b1110110 #
#965
b1110101 #
#967
b1110100 #
#968
b1110011 #
#970
b1110001 #
#971
b1110000 #
#973
b1101111 #
#976
b1101101 #
#979
b1101100 #
#980
b1101011 #
#982
b1101001 #
#983
b1101000 #
#985
b1100111 #
#986
b1100110 #
#988
b1100101 #
#989
b1100100 #
#991
b1100011 #
#994
b1100001 #
#997
b1100000 #
#1000
b1011110 #
#1003
b1011101 #
#1004
b1011100 #
#1006
b1011011 #
#1009
b1011010 #
#1010
b1011001 #
#1012
b1011000 #
#1015
b1010111 #
#1018
b1010110 #
#1021
b1010100 #
#1024
b1010011 #
#1027
b1010010 #
#1030
b1010001 #
#1034
b1010000 #
#1038
b1001111 #
#1040
b1001110 #
#1041
b1001111 #
#1042
b1001110 #
#1045
b1001101 #
#1046
b1001110 #
#1047
b1001101 #
#1051
b1001100 #
#1057
b1001011 #
#1072
b1001010 #
#1076
b1001011 #
#1091
b1001100 #
#1097
b1001101 #
#1101
b1001110 #
#1107
b1001111 #
#1111
b1010000 #
#1114
b1010001 #
#1117
b1010010 #
#1121
b1010011 #
#1124
b1010100 #
#1125
b1010011 #
#1126
b1010101 #
#1128
b1010110 #
#1132
b1010111 #
#1135
b1011000 #
#1136
b1011001 #
#1138
b1011010 #
#1139
b1011011 #
#1141
b1011100 #
#1144
b1011101 #
#1145
b1011110 #
#1147
b1011111 #
#1149
b1100000 #
#1151
b1100001 #
#1152
b1100000 #
#1153
b1100010 #
#1156
b1100100 #
#1159
b1100101 #
#1160
b1100110 #
#1162
b1100111 #
#1163
b1101000 #
#1165
b1101010 #
#1168
b1101100 #
#1171
b1101101 #
#1172
b1101110 #
#1174
b1101111 #
#1175
b1110000 #
#1177
b1110010 #
#1178
b1110011 #
#1180
b1110100 #
#1181
b1110101 #
#1183
b1110110 #
#1184
b1110111 #
#1186
b1111000 #
#1187
b1111001 #
#1189
b1111011 #
#1191
b1111010 #
#1192
b1111101 #
#1193
b1111110 #
#1195
b1000000 #
#1196
b1000001 #
#1198
b1000010 #
#1201
b1000100 #
#1202
b1000101 #
#1204
b1000111 #
#1205
b1001000 #
#1207
b1001001 #
#1208
b1001010 #
#1210
b1001100 #
#1211
b1001101 #
#1213
b1001111 #
#1216
b1010001 #
#1217
b1010010 #
#1219
b1010100 #
#1220
b1010101 #
#1222
b1010111 #
#1223
b1011000 #
#1225
b1011001 #
#1226
b1011010 #
#1227
b1011011 #
#1228
b1011100 #
#1229
b1011101 #
#1231
b1011111 #
#1232
b1100000 #
#1234
b1100010 #
#1236
b1100011 #
#1237
b1100100 #
#1238
b1100101 #
#1240
b1100111 #
#1241
b1101000 #
#1243
b1101010 #
#1244
b1101011 #
#1246
b1101101 #
#1248
b1101110 #
#1249
b1101111 #
#1250
b1110000 #
#1252
b1110010 #
#1253
b1110011 #
#1255
b1110101 #
#1256
b1110110 #
#1258
b1110111 #
#1259
b1111000 #
#1260
b1111001 #
#1261
b1111010 #
#1262
b1111011 #
#1264
b1111101 #
#1265
b1111110 #
#1267
b11000000 #
#1268
b11000010 #
#1270
b11000011 #
#1271
b11000100 #
#1272
b11000101 #
#1273
b11000110 #
#1274
b11000111 #
#1276
b11001001 #
#1277
b11001010 #
#1279
b11001100 #
#1281
b11001101 #
#1282
b11001111 #
#1285
b11010001 #
#1286
b11010010 #
#1288
b11010100 #
#1289
b11010101 #
#1291
b11010111 #
#1292
b11011000 #
#1294
b11011001 #
#1295
b11011010 #
#1297
b11011100 #
#1298
b11011101 #
#1300
b11011111 #
#1301
b11100000 #
#1303
b11100010 #
#1304
b11100011 #
#1306
b11100100 #
#1307
b11100101 #
#1309
b11100111 #
#1310
b11101000 #
#1312
b11101010 #
#1313
b11101011 #
#1315
b11101100 #
#1316
b11101110 #
#1318
b11101111 #
#1319
b11110000 #
#1321
b11110010 #
#1322
b11110011 #
#1324
b11110100 #
#1325
b11110101 #
#1327
b11110111 #
#1328
b11111000 #
#1330
b11111001 #
#1331
b11111010 #
#1333
b11111011 #
#1334
b11111100 #
#1336
b11111110 #
#1337
b11111111 #
#1339
b11000001 #
#1340
b11000010 #
#1342
b11000011 #
#1343
b11000100 #
#1345
b11000110 #
#1348
b11000111 #
#1349
b11001000 #
#1351
b11001001 #
#1352
b11001010 #
#1354
b11001011 #
#1355
b11001100 #
#1356
b11001101 #
#1357
b11001110 #
#1359
b11001111 #
#1360
b11010000 #
#1363
b11010001 #
#1364
b11010010 #
#1366
b11010100 #
#1367
b11010101 #
#1369
b11010110 #
#1372
b11011000 #
#1373
b11011001 #
#1375
b11011010 #
#1378
b11011100 #
#1381
b11011101 #
#1384
b11011110 #
#1385
b11011111 #
#1387
b11100000 #
#1388
b11100001 #
#1391
b11100010 #
#1393
b11100011 #
#1395
b11100100 #
#1396
b11100101 #
#1399
b11100110 #
#1402
b11100111 #
#1405
b11101000 #
#1406
b11101001 #
#1408
b11101010 #
#1412
b11101011 #
#1415
b11101100 #
#1418
b11101101 #
#1422
b11101110 #
#1426
b11101111 #
#1432
b11110000 #
#1435
b11110001 #
#1441
b11110010 #
#1474
b11110001 #
#1483
b11110000 #
#1484
b11101111 #
#1485
b11110000 #
#1489
b11101111 #
#1492
b11101110 #
#1495
b11101101 #
#1498
b11101100 #
#1501
b11101011 #
#1505
b11101010 #
#1508
b11101001 #
#1510
b11101000 #
#1511
b11100111 #
#1512
b11101000 #
#1513
b11100111 #
#1516
b11100110 #
#1519
b11100101 #
#1520
b11100100 #
#1522
b11100011 #
#1523
b11100010 #
#1525
b11100000 #
#1526
b11100001 #
#1528
b11100000 #
#1529
b11011111 #
#1531
b11011110 #
#1532
b11011101 #
#1535
b11011100 #
#1537
b11011011 #
#1540
b11011001 #
#1543
b11011000 #
#1544
b11010111 #
#1546
b11010110 #
#1547
b11010101 #
#1549
b11010011 #
#1550
b11010010 #
#1552
b11010001 #
#1554
b11010000 #
#1555
b11001111 #
#1558
b11001101 #
#1561
b11001011 #
#1562
b11001010 #
#1564
b11001001 #
#1565
b11001000 #
#1567
b11000111 #
#1568
b11000110 #
#1570
b11000100 #
#1573
b11000010 #
#1576
b11000000 #
#1577
b11111111 #
#1579
b11111101 #
#1580
b11111100 #
#1582
b11111011 #
#1583
b11111010 #
#1584
b11111011 #
#1585
b11111000 #
#1588
b11110110 #
#1589
b11110101 #
#1591
b11110100 #
#1592
b11110011 #
#1594
b11110001 #
#1595
b11110000 #
#1597
b11101111 #
#1598
b11101110 #
#1600
b11101100 #
#1601
b11101011 #
#1602
b11101100 #
#1603
b11101001 #
#1604
b11101000 #
#1606
b11100111 #
#1607
b11100110 #
#1609
b11100100 #
#1610
b11100011 #
#1612
b11100001 #
#1613
b11100000 #
#1615
b11011110 #
#1616
b11011101 #
#1617
b11011110 #
#1618
b11011100 #
#1619
b11011011 #
#1621
b11011001 #
#1622
b11011000 #
#1624
b11010110 #
#1625
b11010101 #
#1627
b11010011 #
#1629
b11010010 #
#1630
b11010000 #
#1633
b11001110 #
#1634
b11001101 #
#1636
b11001011 #
#1637
b11001010 #
#1639
b11001000 #
#1640
b11000111 #
#1642
b11000110 #
#1643
b11000101 #
#1645
b11000011 #
#1646
b11000010 #
#1648
b1111111 #
#1649
b1111110 #
#1651
b1111101 #
#1652
b1111011 #
#1653
b1111100 #
#1654
b1111010 #
#1655
b1111001 #
#1657
b1110111 #
#1658
b1110110 #
#1660
b1110100 #
#1661
b1110011 #
#1663
b1110010 #
#1664
b1110000 #
#1665
b1110001 #
#1666
b1101111 #
#1667
b1101110 #
#1669
b1101100 #
#1670
b1101011 #
#1672
b1101001 #
#1673
b1101000 #
#1675
b1100110 #
#1678
b1100100 #
#1679
b1100010 #
#1680
b1100011 #
#1681
b1100001 #
#1682
b1100000 #
#1684
b1011110 #
#1685
b1011101 #
#1687
b1011011 #
#1688
b1011010 #
#1689
b1011011 #
#1690
b1011001 #
#1691
b1011000 #
#1693
b1010110 #
#1694
b1010101 #
#1696
b1010011 #
#1697
b1010010 #
#1698
b1010011 #
#1699
b1010000 #
#1700
b1001111 #
#1701
b1010000 #
#1702
b1001110 #
#1703
b1001101 #
#1705
b1001010 #
#1708
b1001001 #
#1709
b1001000 #
#1711
b1000110 #
#1714
b1000100 #
#1715
b1000011 #
#1717
b1000010 #
#1718
b1000001 #
#1720
b1111111 #
#1721
b1111110 #
#1723
b1111100 #
#1724
b1111011 #
#1726
b1111010 #
#1729
b1111000 #
#1730
b1110111 #
#1732
b1110110 #
#1733
b1110101 #
#1735
b1110100 #
#1736
b1110011 #
#1738
b1110010 #
#1739
b1110001 #
#1741
b1101111 #
#1744
b1101101 #
#1747
b1101100 #
#1748
b1101011 #
#1750
b1101001 #
#1751
b1101000 #
#1753
b1100111 #
#1754
b1100110 #
#1755
b1100111 #
#1756
b1100101 #
#1759
b1100011 #
#1762
b1100010 #
#1763
b1100001 #
#1765
b1100000 #
#1768
b1011111 #
#1769
b1011110 #
#1771
b1011101 #
#1772
b1011100 #
#1774
b1011011 #
#1777
b1011010 #
#1779
b1011001 #
#1780
b1011000 #
#1783
b1010111 #
#1786
b1010110 #
#1789
b1010101 #
#1790
b1010100 #
#1792
b1010011 #
#1795
b1010010 #
#1799
b1010001 #
#1802
b1010000 #
#1803
b1010001 #
#1804
b1010000 #
#1805
b1001111 #
#1809
b1001110 #
#1816
b1001101 #
#1819
b1001100 #
#1825
b1001011 #
#1840
b1001010 #
#1844
b1001011 #
#1859
b1001100 #
#1866
b1001101 #
#1872
b1001110 #
#1876
b1001111 #
#1879
b1010000 #
#1882
b1010001 #
#1885
b1010010 #
#1888
b1010011 #
#1892
b1010100 #
#1894
b1010101 #
#1895
b1010110 #
#1898
b1010111 #
#1899
b1010110 #
#1900
b1010111 #
#1903
b1011001 #
#1906
b1011011 #
#1909
b1011100 #
#1912
b1011101 #
#1913
b1011110 #
#1915
b1011111 #
#1916
b1100000 #
#1919
b1100001 #
#1921
b1100010 #
#1922
b1100011 #
#1923
b1100010 #
#1924
b1100100 #
#1927
b1100110 #
#1930
b1100111 #
#1931
b1101000 #
#1933
b1101010 #
#1934
b1101011 #
#1937
b1101101 #
#1939
b1101110 #
#1941
b1101111 #
#1942
b1110000 #
#1945
b1110010 #
#1946
b1110011 #
#1948
b1110100 #
#1949
b1110101 #
#1951
b1110110 #
#1952
b1110111 #
#1954
b1111001 #
#1957
b1111011 #
#1960
b1111101 #
#1961
b1111110 #
#1963
b1000000 #
#1964
b1000001 #
#1966
b1000010 #
#1967
b1000011 #
#1969
b1000100 #
#1970
b1000101 #
#1972
b1000111 #
#1973
b1001000 #
#1975
b1001001 #
#1976
b1001010 #
#1978
b1001100 #
#1979
b1001101 #
#1980
b1001100 #
#1981
b1001110 #
#1982
b1001111 #
#1984
b1010001 #
#1985
b1010010 #
#1987
b1010100 #
#1988
b1010101 #
#1990
b1010110 #
#1991
b1010111 #
#1992
b1011000 #
#1993
b1011001 #
#1994
b1011010 #
#1996
b1011100 #
#1997
b1011101 #
#1999
b1011111 #
#2000
b1100000 #
#2002
b1100010 #
#2003
b1100011 #
#2005
b1100100 #
#2006
b1100101 #
#2008
b1100111 #
#2009
b1101000 #
#2011
b1101010 #
#2012
b1101011 #
#2013
b1101100 #
#2015
b1101101 #
#2017
b1101111 #
#2018
b1110000 #
#2020
b1110010 #
#2021
b1110011 #
#2023
b1110101 #
#2024
b1110110 #
#2026
b1110111 #
#2027
b1111001 #
#2029
b1111010 #
#2030
b1111011 #
#2032
b1111101 #
#2033
b1111110 #
#2035
b11000000 #
#2036
b11000010 #
#2038
b11000011 #
#2039
b11000100 #
#2041
b11000110 #
#2042
b11000111 #
#2044
b11001001 #
#2045
b11001010 #
#2047
b11001100 #
#2048
b11001101 #
1,
#2050
b11001110 #
#2051
b11001111 #
#2053
b11010001 #
#2054
b11010010 #
#2056
b11010100 #
#2057
b11010101 #
#2059
b11010111 #
#2060
b11011000 #
#2062
b11011001 #
#2063
b11011010 #
#2065
b11011100 #
#2066
b11011101 #
#2068
b11011111 #
#2069
b11100000 #
#2071
b11100010 #
#2072
b11100011 #
#2074
b11100100 #
#2075
b11100101 #
#2077
b11100111 #
#2078
b11101000 #
#2080
b11101010 #
#2081
b11101011 #
#2083
b11101101 #
#2085
b11101110 #
#2086
b11101111 #
#2087
b11110000 #
#2089
b11110010 #
#2091
b11110011 #
#2092
b11110100 #
#2093
b11110101 #
#2095
b11110111 #
#2096
b11111000 #
#2098
b11111001 #
#2099
b11111010 #
#2101
b11111100 #
#2104
b11111110 #
#2105
b11111111 #
#2107
b11000001 #
#2108
b11000010 #
#2110
b11000011 #
#2112
b11000100 #
#2113
b11000101 #
#2114
b11000110 #
#2116
b11000111 #
#2117
b11001000 #
#2119
b11001001 #
#2120
b11001010 #
#2122
b11001100 #
#2123
b11001101 #
#2125
b11001110 #
#2127
b11001111 #
#2128
b11010000 #
#2131
b11010010 #
#2134
b11010100 #
#2135
b11010101 #
#2137
b11010110 #
#2138
b11010111 #
#2140
b11011000 #
#2141
b11011001 #
#2143
b11011010 #
#2146
b11011100 #
#2149
b11011101 #
#2152
b11011110 #
#2153
b11011111 #
#2155
b11100000 #
#2156
b11100001 #
#2159
b11100010 #
#2161
b11100011 #
#2162
b11100100 #
#2164
b11100101 #
#2167
b11100110 #
#2170
b11100111 #
#2173
b11101000 #
#2174
b11101001 #
#2177
b11101010 #
#2181
b11101011 #
#2183
b11101100 #
#2186
b11101101 #
#2190
b11101110 #
#2193
b11101111 #
#2200
b11110000 #
#2203
b11110001 #
#2209
b11110010 #
#2243
b11110001 #
#2249
b11110000 #
#2257
b11101111 #
#2260
b11101110 #
#2263
b11101101 #
#2266
b11101100 #
#2269
b11101011 #
#2270
b11101010 #
#2271
b11101011 #
#2272
b11101010 #
#2275
b11101001 #
#2278
b11101000 #
#2279
b11100111 #
#2282
b11100110 #
#2283
b11100111 #
#2284
b11100110 #
#2287
b11100100 #
#2290
b11100010 #
#2293
b11100001 #
#2296
b11100000 #
#2297
b11011111 #
#2299
b11011110 #
#2300
b11011101 #
#2303
b11011100 #
#2305
b11011011 #
#2306
b11011010 #
#2308
b11011001 #
#2309
b11011000 #
#2310
b11011001 #
#2311
b11010111 #
#2314
b11010101 #
#2317
b11010011 #
#2318
b11010010 #
#2320
b11010001 #
#2321
b11010000 #
#2323
b11001111 #
#2326
b11001101 #
#2329
b11001011 #
#2330
b11001010 #
#2332
b11001001 #
#2333
b11001000 #
#2335
b11000111 #
#2336
b11000110 #
#2338
b11000100 #
#2339
b11000011 #
#2340
b11000100 #
#2341
b11000010 #
#2344
b11000000 #
#2345
b11111111 #
#2348
b11111100 #
#2350
b11111011 #
#2351
b11111010 #
#2352
b11111011 #
#2353
b11111001 #
#2354
b11111000 #
#2356
b11110110 #
#2357
b11110101 #
#2359
b11110100 #
#2360
b11110011 #
#2362
b11110001 #
#2364
b11110000 #
#2365
b11101111 #
#2366
b11101110 #
#2368
b11101100 #
#2369
b11101011 #
#2371
b11101001 #
#2372
b11101000 #
#2374
b11100110 #
#2375
b11100101 #
#2376
b11100110 #
#2377
b11100100 #
#2378
b11100011 #
#2380
b11100001 #
#2381
b11100000 #
#2383
b11011110 #
#2384
b11011101 #
#2386
b11011011 #
#2389
b11011000 #
#2392
b11010110 #
#2393
b11010101 #
#2395
b11010011 #
#2396
b11010010 #
#2398
b11010001 #
#2399
b11010000 #
#2400
b11001111 #
#2401
b11001110 #
#2402
b11001101 #
#2404
b11001011 #
#2405
b11001010 #
#2407
b11001000 #
#2408
b11000111 #
#2410
b11000110 #
#2411
b11000101 #
#2413
b11000011 #
#2414
b11000010 #
#2416
b11000000 #
#2417
b1111110 #
#2418
b1111111 #
#2419
b1111100 #
#2420
b1111011 #
#2422
b1111010 #
#2423
b1111001 #
#2425
b1110111 #
#2426
b1110110 #
#2428
b1110100 #
#2429
b1110011 #
#2431
b1110001 #
#2432
b1110000 #
#2433
b1110001 #
#2434
b1101111 #
#2435
b1101110 #
#2437
b1101100 #
#2438
b1101011 #
#2440
b1101001 #
#2441
b1101000 #
#2442
b1101001 #
#2443
b1100110 #
#2444
b1100101 #
#2445
b1100110 #
#2446
b1100100 #
#2447
b1100011 #
#2449
b1100001 #
#2450
b1100000 #
#2452
b1011110 #
#2453
b1011101 #
#2455
b1011011 #
#2456
b1011010 #
#2457
b1011011 #
#2458
b1011001 #
#2459
b1011000 #
#2461
b1010110 #
#2462
b1010101 #
#2464
b1010011 #
#2465
b1010010 #
#2467
b1010000 #
#2469
b1001111 #
#2470
b1001110 #
#2471
b1001101 #
#2473
b1001011 #
#2474
b1001010 #
#2476
b1001001 #
#2477
b1001000 #
#2479
b1000110 #
#2480
b1000101 #
#2481
b1000110 #
#2482
b1000100 #
#2483
b1000011 #
#2485
b1000001 #
#2488
b1111111 #
#2489
b1111110 #
#2491
b1111100 #
#2492
b1111011 #
#2493
b1111100 #
#2494
b1111010 #
#2495
b1111001 #
#2497
b1111000 #
#2498
b1110111 #
#2500
b1110101 #
#2503
b1110100 #
#2504
b1110011 #
#2506
b1110001 #
#2508
b1110000 #
#2509
b1101111 #
#2510
b1101110 #
#2511
b1101111 #
#2512
b1101101 #
#2514
b1101100 #
#2516
b1101011 #
#2518
b1101001 #
#2519
b1101000 #
#2521
b1100111 #
#2522
b1100110 #
#2523
b1100111 #
#2524
b1100101 #
#2525
b1100100 #
#2526
b1100101 #
#2527
b1100100 #
#2528
b1100011 #
#2530
b1100001 #
#2533
b1100000 #
#2536
b1011111 #
#2537
b1011110 #
#2539
b1011101 #
#2540
b1011100 #
#2544
b1011011 #
#2545
b1011010 #
#2548
b1011000 #
#2551
b1010111 #
#2554
b1010110 #
#2557
b1010101 #
#2558
b1010100 #
#2560
b1010011 #
#2564
b1010010 #
#2566
b1010001 #
#2569
b1010000 #
#2573
b1001111 #
#2576
b1001110 #
#2579
b1001101 #
#2581
b1001110 #
#2583
b1001101 #
#2585
b1001100 #
#2586
b1001101 #
#2587
b1001100 #
#2591
b1001011 #
#2592
b1001100 #
#2593
b1001011 #
#2604
b1001010 #
#2605
b1001011 #
#2608
b1001010 #
#2612
b1001011 #
#2627
b1001100 #
#2633
b1001101 #
#2636
b1001110 #
#2638
b1001101 #
#2639
b1001110 #
#2643
b1001111 #
#2647
b1010000 #
#2650
b1010001 #
#2653
b1010010 #
#2656
b1010011 #
#2660
b1010100 #
#2662
b1010101 #
#2663
b1010110 #
#2666
b1010111 #
#2671
b1011001 #
#2673
b1011010 #
#2675
b1011011 #
#2677
b1011100 #
#2680
b1011101 #
#2681
b1011111 #
#2682
b1011110 #
#2683
b1011111 #
#2684
b1100000 #
#2687
b1100001 #
#2689
b1100010 #
#2692
b1100100 #
